Versuche/243/Python/A1/30KOhm_FFT.csv

#Digilent WaveForms Oscilloscope Acquisition
#Device Name: Discovery3
#Serial Number: SN:210415BB6C6F
#Date Time: 2026-05-19 14:40:38.231.133.780
#Sample rate: 2.5e+07Hz
#Samples: 32768
#Trigger: Source: Channel 1 Type: Edge Condition: Rising Level: 0 V Hyst.: Auto HoldOff: 0 s
#Channel 1: Range: 20 mV/div Offset: 0 V Sample Mode: Average

Time (s),Channel 1 (V)
-0.0005049704347826088,-0.02500271417919507
-0.0005049304347826088,-0.02723459355770529
-0.0005048904347826086,-0.0272345935577107
-0.0005048504347826086,-0.02872251314338418
-0.0005048104347826086,-0.03021043272905856
-0.0005047704347826087,-0.03194633891234277
-0.0005047304347826087,-0.03459152928686889
-0.0005046904347826087,-0.03475685368527524
-0.0005046504347826087,-0.03393023169323172
-0.0005046104347826087,-0.03161569011552164
-0.0005045704347826088,-0.02921848633860326
-0.0005045304347826088,-0.02541602517521549
-0.0005044904347826088,-0.0233494701951172
-0.0005044504347826086,-0.02103492861738561
-0.0005044104347826086,-0.01731512965320102
-0.0005043704347826086,-0.01334734409140117
-0.0005043304347826087,-0.008304949939963448
-0.0005042904347826087,-0.004419826577370693
-0.0005042504347826087,-3.87300195560016e-05
-0.0005042104347826087,0.003433082347009126
-0.0005041704347826088,0.007814178904825471
-0.0005041304347826088,0.01178196446662141
-0.0005040904347826088,0.01236059986104998
-0.0005040504347826086,0.01376585724752118
-0.0005040104347826086,0.01426183044274116
-0.0005039704347826086,0.01351787064990893
-0.0005039304347826087,0.01401384384513207
-0.0005038904347826087,0.01426183044274552
-0.0005038504347826087,0.01517111463399313
-0.0005038104347826087,0.01756831841090714
-0.0005037704347826087,0.01922156239498879
-0.0005037304347826088,0.02004818438702961
-0.0005036904347826088,0.0205441575822541
-0.0005036504347826088,0.02013084658623444
-0.0005036104347826086,0.02037883318384233
-0.0005035704347826086,0.01938688679338763
-0.0005035304347826087,0.01682435861806755
-0.0005034904347826087,0.01525377683318939
-0.0005034504347826087,0.01335254625149611
-0.0005034104347826087,0.01178196446661915
-0.0005033704347826087,0.01054203147856018
-0.0005033304347826088,0.01128599127139692
-0.0005032904347826088,0.01095534247458059
-0.0005032504347826088,0.01095534247458059
-0.0005032104347826086,0.01310455965389273
-0.0005031704347826086,0.01475780363797437
-0.0005031304347826086,0.01641104762205962
-0.0005030904347826087,0.01905623799657851
-0.0005030504347826087,0.01789896720772678
-0.0005030104347826087,0.01971753559021027
-0.0005029704347826087,0.01806429160613164
-0.0005029304347826087,0.01946954899260103
-0.0005028904347826088,0.01988285998862144
-0.0005028504347826088,0.02137077957429492
-0.0005028104347826088,0.02137077957429492
-0.0005027704347826086,0.02178409057031442
-0.0005027304347826086,0.02153610397270699
-0.0005026904347826087,0.0226107125623563
-0.0005026504347826087,0.02269337476155828
-0.0005026104347826087,0.02161876617190491
-0.0005025704347826087,0.02037883318384398
-0.0005025304347826087,0.01930422459419287
-0.0005024904347826088,0.02062681978145818
-0.0005024504347826088,0.02161876617190716
-0.0005024104347826088,0.0245946053432487
-0.0005023704347826086,0.02839706650665572
-0.0005023304347826086,0.03219952767002995
-0.0005022904347826086,0.03228218986923073
-0.0005022504347826087,0.03145556787719141
-0.0005022104347826087,0.03062894588514593
-0.0005021704347826087,0.02723979571777888
-0.0005021304347826087,0.02401596994882554
-0.0005020904347826087,0.01847760260215205
-0.0005020504347826088,0.01616306102443775
-0.0005020104347826088,0.01368319504831529
-0.0005019704347826088,0.01202995106423666
-0.0005019304347826086,0.0118646266658291
-0.0005018904347826086,0.01285657305627808
-0.0005018504347826087,0.01384851944672842
-0.0005018104347826087,0.01657637202046192
-0.0005017704347826087,0.01864292700056562
-0.0005017304347826087,0.02161876617191258
-0.0005016904347826087,0.02459460534325411
-0.0005016504347826088,0.02864505310425413
-0.0005016104347826088,0.03269550086525415
-0.0005015704347826088,0.03724192182147039
-0.0005015304347826086,0.04120970738328512
-0.0005014904347826086,0.04410288435542528
-0.0005014504347826086,0.0462521015347275
-0.0005014104347826087,0.04732671012437471
-0.0005013704347826087,0.04625210153471848
-0.0005013304347826087,0.04344158676178165
-0.0005012904347826087,0.04170568057849908
-0.0005012504347826087,0.03682861082545825
-0.0005012104347826088,0.03286082526366231
-0.0005011704347826088,0.02864505310425413
-0.0005011304347826088,0.02575187613211653
-0.0005010904347826086,0.02285869915995546
-0.0005010504347826086,0.01930422459418565
-0.0005010104347826087,0.0173203318132934
-0.0005009704347826087,0.01649370982124716
-0.0005009304347826087,0.0126912486578624
-0.0005008904347826087,0.01054203147855206
-0.0005008504347826087,0.00607827272153975
-0.0005008104347826088,0.002027824960539733
-0.0005007704347826088,0.0007052297732744211
-0.0005007304347826088,-0.002187947198863185
-0.0005006904347826086,-0.003345217987732212
-0.0005006504347826086,-0.005163786370225023
-0.0005006104347826086,-0.007808976744748128
-0.0005005704347826087,-0.008387612139181815
-0.0005005304347826087,-0.01235539770096692
-0.0005004904347826087,-0.01037150492007347
-0.0005004504347826087,-0.01086747811529706
-0.0005004104347826087,-0.01185942450574604
-0.0005003704347826088,-0.01491792587629707
-0.0005003304347826088,-0.01648850766117463
-0.0005002904347826088,-0.01896837363729258
-0.0005002504347826086,-0.02070427982059244
-0.0005002104347826086,-0.02334947019511825
-0.0005001704347826087,-0.0246720653823777
-0.0005001304347826087,-0.02409342998794476
-0.0005000904347826087,-0.0211175908165948
-0.0005000504347826087,-0.016488507661162
-0.0005000104347826087,-0.009544882928031745
-0.0004999704347826088,-0.00433716437817458
-0.0004999304347826088,0.002275811558151979
-0.0004998904347826088,0.007566192307203602
-0.0004998504347826086,0.01318722185310914
-0.0004998104347826086,0.01822961600455875
-0.0004997704347826086,0.02343733455440869
-0.0004997304347826087,0.02666116032335616
-0.0004996904347826087,0.02666116032335857
-0.0004996504347826087,0.02798375551062193
-0.0004996104347826087,0.02823174210823372
-0.0004995704347826087,0.02839706650664189
-0.0004995304347826088,0.0297196616939072
-0.0004994904347826088,0.03021563488913169
-0.0004994504347826088,0.03046362148674349
-0.0004994104347826086,0.02980232389310677
-0.0004993704347826086,0.02856239090504313
-0.0004993304347826087,0.02666116032335376
-0.0004992904347826087,0.02533856513608649
-0.0004992504347826087,0.02294136135916526
-0.0004992104347826087,0.01897357579737519
-0.0004991704347826087,0.0182296160045398
-0.0004991304347826088,0.01674169641886633
-0.0004990904347826088,0.01608039882523367
-0.0004990504347826088,0.01293923525548427
-0.0004990104347826086,0.007400867908792431
-0.0004989704347826086,0.003929055542214372
-0.0004989304347826086,-0.001361325206834545
-0.0004988904347826087,-0.003262555788525273
-0.0004988504347826087,-0.00532911076862206
-0.0004988104347826087,-0.004502488776584548
-0.0004987704347826087,-0.005494435167031728
-0.0004987304347826088,-0.004585150975786826
-0.0004986904347826088,-0.004502488776582744
-0.0004986504347826088,-0.003427880186929678
-0.0004986104347826086,-0.004998461971818964
-0.0004985704347826086,-0.008222287740776957
-0.0004985304347826086,-0.01111546471292885
-0.0004984904347826087,-0.0164885076611814
-0.0004984504347826087,-0.02020830662536494
-0.0004984104347826087,-0.02384544339034455
-0.0004983704347826087,-0.02748258015531694
-0.0004983304347826087,-0.02715193135850121
-0.0004982904347826088,-0.02872251314337877
-0.0004982504347826088,-0.02971445953382775
-0.0004982104347826088,-0.02872251314338057
-0.0004981704347826086,-0.02971445953382805
-0.0004981304347826086,-0.02979712173303424
-0.0004980904347826086,-0.0304584193266699
-0.0004980504347826087,-0.03194633891233841
-0.0004980104347826087,-0.03219432550995111
-0.0004979704347826087,-0.03269029870517696
-0.0004979304347826087,-0.03393023169323593
-0.0004978904347826088,-0.03376490729482776
-0.0004978504347826088,-0.035004840282889
-0.0004978104347826088,-0.03550081347811349
-0.0004977704347826086,-0.0363274354701516
-0.0004977304347826086,-0.03558347567730794
-0.0004976904347826086,-0.032938285302768
-0.0004976504347826087,-0.02773056675291896
-0.0004976104347826087,-0.02177888841022821
-0.0004975704347826087,-0.01756311625082334
-0.0004975304347826087,-0.01516591247390691
-0.0004974904347826087,-0.01384331728664401
-0.0004974504347826088,-0.01119812691211338
-0.0004974104347826088,-0.01061949151768481
-0.0004973704347826088,-0.01053682931848088
-0.0004973304347826086,-0.009958193924057567
-0.0004972904347826086,-0.01144611350972954
-0.0004972504347826086,-0.01252072209937644
-0.0004972104347826087,-0.01128078911131747
-0.0004971704347826087,-0.0112807891113116
-0.0004971304347826087,-0.00805696334235421
-0.0004970904347826087,-0.005825083963848056
-0.0004970504347826088,-0.002849244792501104
-0.0004970104347826088,0.0006225675740703391
-0.0004969704347826088,0.004094379940641783
-0.0004969304347826086,0.007235543510408626
-0.0004968904347826086,0.01045936927937203
-0.0004968504347826086,0.01484046583717695
-0.0004968104347826087,0.01608039882523156
-0.0004967704347826087,0.01492312803637201
-0.0004967304347826087,0.0124432620602494
-0.0004966904347826087,0.009880733884927521
-0.0004966504347826087,0.003267757948600963
-0.0004966104347826088,-0.002601258194888858
-0.0004965704347826088,-0.008635598736786843
-0.0004965304347826088,-0.01417396608345026
-0.0004964904347826086,-0.02004298222695798
-0.0004964504347826086,-0.02219219940625027
-0.0004964104347826087,-0.0205389554221727
-0.0004963704347826087,-0.01946434683251707
-0.0004963304347826087,-0.01698448085639056
-0.0004962904347826087,-0.01227273550175773
-0.0004962504347826087,-0.007478327947929696
-0.0004962104347826088,-0.002849244792501104
-0.0004961704347826088,0.003267757948600963
-0.0004961304347826088,0.008475476498448655
-0.0004960904347826086,0.01417916824355332
-0.0004960504347826086,0.01789896720773099
-0.0004960104347826086,0.01996552218782612
-0.0004959704347826087,0.02013084658623158
-0.0004959304347826087,0.01897357579737383
-0.0004958904347826087,0.01748565621169825
-0.0004958504347826087,0.01484046583717244
-0.0004958104347826087,0.0155017634308051
-0.0004957704347826088,0.01434449264194795
-0.0004957304347826088,0.01351787064990713
-0.0004956904347826088,0.01136865347060491
-0.0004956504347826086,0.005995610522323939
-0.0004956104347826086,0.002771784753361435
-0.0004955704347826087,-0.001361325206833192
-0.0004955304347826087,-0.004419826577382421
-0.0004954904347826087,-0.006486381557485372
-0.0004954504347826087,-0.009048909732815072
-0.0004954104347826087,-0.01334734409141952
-0.0004953704347826088,-0.01491792587629707
-0.0004953304347826088,-0.01706714305560321
-0.0004952904347826088,-0.01599253446595209
-0.0004952504347826086,-0.01549656127072264
-0.0004952104347826086,-0.01466993927868363
-0.0004951704347826086,-0.01433929048186339
-0.0004951304347826087,-0.01293403309539911
-0.0004950904347826087,-0.01293403309539881
-0.0004950504347826087,-0.01276870869698748
-0.0004950104347826087,-0.01086747811529706
-0.0004949704347826087,-0.009627545127235827
-0.0004949304347826088,-0.007147679151113367
-0.0004948904347826088,-0.004998461971807235
-0.0004948504347826088,-0.006321057159070141
-0.0004948104347826086,-0.005907746163052439
-0.0004947704347826086,-0.005990408362266143
-0.0004947304347826087,-0.008718260935993783
-0.0004946904347826087,-0.01028884272087239
-0.0004946504347826087,-0.01243805990017642
-0.0004946104347826087,-0.01343000629062661
-0.0004945704347826087,-0.01508325027470524
-0.0004945304347826088,-0.01673649425878688
-0.0004944904347826088,-0.01541389907152157
-0.0004944504347826088,-0.01425662828266652
-0.0004944104347826086,-0.01260338429857195
-0.0004943704347826086,-0.009627545127227407
-0.0004943304347826086,-0.007313003549515818
-0.0004942904347826087,-0.00574242176464277
-0.0004942504347826087,-0.00508112417100786
-0.0004942104347826087,-0.003179893589312169
-0.0004941704347826087,-0.0002867166171745628
-0.0004941304347826087,0.0002919187772540112
-0.0004940904347826088,0.003185095749396881
-0.0004940504347826088,0.003019771350988716
-0.0004940104347826088,0.004094379940639829
-0.0004939704347826086,0.001779838362922675
-0.0004939304347826086,0.0004572431756543563
-0.0004938904347826087,-0.001691974003651324
-0.0004938504347826087,-0.005742421764648785
-0.0004938104347826087,-0.00838761213918046
-0.0004937704347826087,-0.0116114379081353
-0.0004937304347826087,-0.01243805990017461
-0.0004936904347826088,-0.01235539770097053
-0.0004936504347826088,-0.01037150492007257
-0.0004936104347826088,-0.008883585334401796
-0.0004935704347826086,-0.005990408362236673
-0.0004935304347826086,-0.0006173654139851769
-0.0004934904347826086,0.0009532163708968917
-0.0004934504347826087,0.00376373114383207
-0.0004934104347826087,0.007400867908809272
-0.0004933704347826087,0.009715409486521161
-0.0004933304347826087,0.01070735587696834
-0.0004932904347826087,0.009550085088111194
-0.0004932504347826088,0.009715409486519357
-0.0004932104347826088,0.007814178904825471
-0.0004931704347826088,0.005086326331095728
-0.0004931304347826086,0.0008705541716741647
-0.0004930904347826086,-0.001443987406044942
-0.0004930504347826087,-0.005081124171014475
-0.0004930104347826087,-0.006817030354302904
-0.0004929704347826087,-0.0100408561232609
-0.0004929304347826087,-0.0126033842985906
-0.0004928904347826087,-0.01690181865719504
-0.0004928504347826088,-0.01946434683252158
-0.0004928104347826088,-0.0244240787847665
-0.0004927704347826088,-0.02739991795610804
-0.0004927304347826086,-0.02930114853781245
-0.0004926904347826086,-0.03070640592427583
-0.0004926504347826086,-0.030458419326669
-0.0004926104347826087,-0.03169835231472436
-0.0004925704347826087,-0.03095439252188928
-0.0004925304347826087,-0.03111971692029564
-0.0004924904347826087,-0.03029309492825632
-0.0004924504347826087,-0.03103705472109306
-0.0004924104347826088,-0.03161569011552164
-0.0004923704347826088,-0.0308717303226849
-0.0004923304347826088,-0.02913582413940233
-0.0004922904347826086,-0.02830920214734633
-0.0004922504347826086,-0.02500271417918696
-0.0004922104347826087,-0.02277083480067629
-0.0004921704347826087,-0.01805908944604707
-0.0004921304347826087,-0.01524857467310829
-0.0004920904347826087,-0.0124380599001695
-0.0004920504347826087,-0.009627545127235827
-0.0004920104347826088,-0.006569043756684794
-0.0004919704347826088,-0.004833137573399072
-0.0004919304347826088,-0.002766582593300781
-0.0004918904347826086,-0.001443987406026598
-0.0004918504347826086,-3.873001956051245e-05
-0.0004918104347826086,0.0004572431756648816
-0.0004917704347826087,0.001201202968498913
-0.0004917304347826087,0.001201202968498311
-0.0004916904347826087,0.0008705541716824346
-0.0004916504347826087,0.0007878919724785031
-0.0004916104347826088,0.002275811558151979
-0.0004915704347826088,0.006408921518356078
-0.0004915304347826088,0.009550085088111194
-0.0004914904347826086,0.008971449693681115
-0.0004914504347826086,0.008558138697654391
-0.0004914104347826086,0.00640892151834826
-0.0004913704347826087,0.004259704339045285
-0.0004913304347826087,0.001697176163722352
-0.0004912904347826087,0.001118540769284155
-0.0004912504347826087,-0.004750475374197546
-0.0004912104347826087,-0.006155732760664384
-0.0004911704347826088,-0.007560990147133777
-0.0004911304347826088,-0.009875531724848072
-0.0004910904347826088,-0.008470274338381236
-0.0004910504347826086,-0.008552936537571335
-0.0004910104347826086,-0.005411772967826744
-0.0004909704347826086,-0.005163786370203973
-0.0004909304347826087,-0.002022622800455924
-0.0004908904347826087,0.0003745809764656112
-0.0004908504347826087,0.004507690936665349
-0.0004908104347826087,0.006243597119947914
-0.0004907704347826088,0.006408921518356078
-0.0004907304347826088,0.009632747287315275
-0.0004906904347826088,0.01037670708015201
-0.0004906504347826086,0.01194728886503619
-0.0004906104347826086,0.01376585724752088
-0.0004905704347826086,0.01417916824353858
-0.0004905304347826087,0.01384851944672887
-0.0004904904347826087,0.0168243586180692
-0.0004904504347826087,0.01616306102443745
-0.0004904104347826087,0.01599773662602809
-0.0004903704347826087,0.01517111463398877
-0.0004903304347826088,0.01434449264194795
-0.0004902904347826088,0.01087268027537651
-0.0004902504347826088,0.007896841104034966
-0.0004902104347826086,0.002027824960536124
-0.0004901704347826086,0.001035878570085637
-0.0004901304347826087,-0.000369378816379998
-0.0004900904347826087,-0.001113338609217037
-0.0004900504347826087,-0.002022622800460435
-0.0004900104347826087,-0.002105284999666321
-0.0004899704347826087,-0.003179893589317432
-0.0004899304347826088,-0.003179893589317432
-0.0004898904347826088,-0.002435933796480694
-0.0004898504347826088,-0.001113338609217788
-0.0004898104347826086,0.001283865167712017
-0.0004897704347826086,0.003763731143829364
-0.0004897304347826086,0.004838339733489347
-0.0004896904347826087,0.007814178904833741
-0.0004896504347826087,0.0123605998610557
-0.0004896104347826087,0.0155017634308066
-0.0004895704347826087,0.01632838542284592
-0.0004895304347826087,0.01698968301647857
-0.0004894904347826088,0.01831227820374388
-0.0004894504347826088,0.01955221119180511
-0.0004894104347826088,0.0200481843870287
-0.0004893704347826086,0.01996552218781981
-0.0004893304347826086,0.01839494040294255
-0.0004892904347826087,0.01690702081727223
-0.0004892504347826087,0.0156670878292107
-0.0004892104347826087,0.01426183044274357
-0.0004891704347826087,0.0140965060443366
-0.0004891304347826087,0.01459247923956019
-0.0004890904347826088,0.01484046583717244
-0.0004890504347826088,0.01244326206025406
-0.0004890104347826088,0.009384760689708593
-0.0004889704347826086,0.004921001932676287
-0.0004889304347826086,0.003185095749385453
-0.0004888904347826086,4.393217962131601e-05
-0.0004888504347826087,-0.005577097366238967
-0.0004888104347826087,-0.007313003549523186
-0.0004887704347826087,-0.008222287740767335
-0.0004887304347826087,-0.008718260935990926
-0.0004886904347826087,-0.005907746163052138
-0.0004886504347826088,-0.002518595995684776
-0.0004886104347826088,-3.873001956231679e-05
-0.0004885704347826088,0.003846393343022469
-0.0004885304347826086,0.008227489900870541
-0.0004884904347826086,0.01500579023560737
-0.0004884504347826087,0.02236272596475066
-0.0004884104347826087,0.02608252492893601
-0.0004883704347826087,0.03071160808435768
-0.0004883304347826087,0.03153823007639475
-0.0004882904347826087,0.03029829708833577
-0.0004882504347826087,0.02682648472176433
-0.0004882104347826087,0.02302402355837656
-0.0004881704347826087,0.01649370982126596
-0.0004881304347826087,0.01252592425945213
-0.0004880904347826087,0.009219436291294866
-0.0004880504347826087,0.006243597119947914
-0.0004880104347826087,0.002523798155764225
-0.0004879704347826087,-0.0007826898123990546
-0.0004879304347826087,-0.003510542386138271
-0.0004878904347826087,-0.00599040836225622
-0.0004878504347826087,-0.00599040836225622
-0.0004878104347826087,-0.007313003549521532
-0.0004877704347826087,-0.009131571932011334
-0.0004877304347826088,-0.009875531724846719
-0.0004876904347826087,-0.01161143790813019
-0.0004876504347826087,-0.009627545127235827
-0.0004876104347826087,-0.01012351832246032
-0.0004875704347826087,-0.01210741110335829
-0.0004875304347826087,-0.01227273550176615
-0.0004874904347826087,-0.01293403309540121
-0.0004874504347826087,-0.01409130388425625
-0.0004874104347826087,-0.01516591247390932
-0.0004873704347826087,-0.01442195268107258
-0.0004873304347826087,-0.01458727707948045
-0.0004872904347826087,-0.01392597948584659
-0.0004872504347826087,-0.01309935749380727
-0.0004872104347826087,-0.01442195268107258
-0.0004871704347826087,-0.01475260147788891
-0.0004871304347826087,-0.01334734409141952
-0.0004870904347826087,-0.01268604649778581
